<?xml version="1.0" standalone="no"?>
<!DOCTYPE svg PUBLIC "-//W3C//DTD SVG 1.1//EN" "http://www.w3.org/Graphics/SVG/1.1/DTD/svg11.dtd" >
<svg xmlns="http://www.w3.org/2000/svg">
<metadata>Generated by IcoMoon</metadata>
<defs>
<font id="icomoon" horiz-adv-x="512">
<font-face units-per-em="512" ascent="480" descent="-32" />
<missing-glyph horiz-adv-x="512" />
<glyph unicode="&#x20;" horiz-adv-x="256" d="" />
<glyph unicode="&#xe00b;" glyph-name="checked" d="M226.32 212.896l-50.32 54.176-48-51.696 96-103.376 160 189.536-32 34.464zM384 480h-256c-64 0-128-64-128-128v-256c0-64 64-128 128-128h256c64 0 128 64 128 128v256c0 64-64 128-128 128zM448 128c0-48-48-96-96-96h-192c-48 0-96 48-96 96v192c0 48 48 96 96 96h192c48 0 96-48 96-96v-192z" />
<glyph unicode="&#xe00c;" glyph-name="unchecked" d="M64 320c0 48 48 96 96 96h192c48 0 96-48 96-96v-192c0-48-48-96-96-96h-192c-48 0-96 48-96 96v192zM0 352v-256c0-64 64-128 128-128h256c64 0 128 64 128 128v256c0 64-64 128-128 128h-256c-64 0-128-64-128-128z" />
<glyph unicode="&#xe00d;" glyph-name="checked-dot" d="M64 320c0 48 48 96 96 96h192c48 0 96-48 96-96v-192c0-48-48-96-96-96h-192c-48 0-96 48-96 96v192zM0 352v-256c0-64 64-128 128-128h256c64 0 128 64 128 128v256c0 64-64 128-128 128h-256c-64 0-128-64-128-128zM160 224c0-53.008 42.992-96 96-96s96 42.992 96 96-42.992 96-96 96-96-42.992-96-96z" />
<glyph unicode="&#xe606;" glyph-name="arrow-left" d="M288.664 408.060l-116.628-166.726h277.442c17.334 0 31.462-14.028 31.462-31.562v-0.601c0-17.334-14.027-31.562-31.462-31.562h-277.642l116.828-166.826-18.035-25.75h-9.118l-229.448 218.527v11.623l229.448 218.727h9.118l18.035-25.85z" />
<glyph unicode="&#xe607;" glyph-name="caret-down" d="M262.313 81.021l218.226 229.548v9.118l-25.75 18.035-198.288-139.071-198.287 139.071-25.65-18.035v-9.118l218.126-229.548h11.622z" />
<glyph unicode="&#xe608;" glyph-name="caret-up" d="M262.313 337.923l218.226-229.548v-9.118l-25.75-18.035-198.288 139.072-198.287-139.072-25.65 18.035v9.118l218.126 229.548h11.622z" />
<glyph unicode="&#xe60e;" glyph-name="arrow-up" d="M57.913 177.309l166.726 116.628v-277.442c0-17.334 14.028-31.462 31.562-31.462h0.601c17.334 0 31.562 14.027 31.562 31.462v277.642l166.826-116.828 25.75 18.035v9.118l-218.527 229.448h-11.623l-218.727-229.448v-9.118l25.85-18.035z" />
<glyph unicode="&#xe60f;" glyph-name="arrow-right" d="M224.338 408.060l116.628-166.726h-277.442c-17.334 0-31.462-14.028-31.462-31.562v-0.601c0-17.334 14.028-31.562 31.462-31.562h277.642l-116.828-166.826 18.035-25.75h9.118l229.448 218.527v11.623l-229.448 218.727h-9.118l-18.035-25.85z" />
<glyph unicode="&#xe610;" glyph-name="arrow-down" d="M455.089 241.635l-166.726-116.628v277.442c0 17.334-14.027 31.462-31.562 31.462h-0.601c-17.334 0-31.561-14.027-31.561-31.462v-277.642l-166.826 116.828-25.751-18.035v-9.118l218.527-229.448h11.623l218.727 229.448v9.118l-25.851 18.035z" />
<glyph unicode="&#xe616;" glyph-name="caret-left" d="M128.050 203.661l229.548-218.226h9.118l18.035 25.75-139.071 198.287 139.071 198.288-18.035 25.65h-9.118l-229.548-218.126v-11.623z" />
<glyph unicode="&#xe617;" glyph-name="caret-right" d="M384.952 203.661l-229.548-218.226h-9.118l-18.035 25.75 139.071 198.287-139.071 198.288 18.035 25.65h9.118l229.548-218.126v-11.623z" />
<glyph unicode="&#xe619;" glyph-name="status" d="M256.501 465.973c-141.661 0-256.501-114.839-256.501-256.501s114.84-256.501 256.501-256.501 256.501 114.839 256.501 256.501-114.839 256.501-256.501 256.501zM208.407 49.159l-106.207 138.27 47.092 49.096 59.115-75.147 185.362 151.296 23.045-23.045-208.407-240.469z" />
<glyph unicode="&#xe61a;" glyph-name="error" d="M256.501 465.973c-141.661 0-256.501-114.839-256.501-256.501s114.84-256.501 256.501-256.501 256.501 114.839 256.501 256.501-114.839 256.501-256.501 256.501zM384.752 292.379l-82.906-82.907 82.906-82.906v-45.344h-45.344l-82.906 82.906-82.907-82.906h-45.344v45.344l82.907 82.906-82.907 82.907v45.344h45.344l82.907-82.907 82.906 82.907h45.344v-45.344z" />
<glyph unicode="&#xe61b;" glyph-name="warning" d="M513.002 97.252l-144.282 368.72h-224.439l-144.282-144.282v-224.439l144.282-144.282h224.439l144.282 144.282v224.438l-144.282 144.282zM288.563 49.159h-64.125v64.125h64.125v-64.125zM288.563 177.409h-64.125v192.375h64.125v-192.375z" />
<glyph unicode="&#xe900;" glyph-name="cogs" d="M181.861 118.974l20.649 28.908-22.627 22.628-28.909-20.648c-5.361 2.997-11.102 5.387-17.133 7.096l-5.841 35.042h-32l-5.84-35.043c-6.031-1.709-11.772-4.099-17.133-7.096l-28.909 20.649-22.628-22.628 20.649-28.908c-2.997-5.36-5.387-11.103-7.096-17.133l-35.043-5.841v-32l35.043-5.841c1.709-6.030 4.099-11.772 7.096-17.133l-20.649-28.908 22.627-22.628 28.909 20.648c5.361-2.997 11.102-5.387 17.133-7.096l5.841-35.042h32l5.84 35.043c6.031 1.709 11.772 4.099 17.133 7.096l28.909-20.648 22.627 22.628-20.649 28.908c2.997 5.36 5.387 11.103 7.096 17.133l35.044 5.84v32l-35.043 5.841c-1.709 6.030-4.099 11.772-7.096 17.133zM112 48c-17.674 0-32 14.327-32 32s14.326 32 32 32 32-14.327 32-32-14.326-32-32-32zM512 288v32l-33.691 6.125c-0.621 4.023-1.416 7.989-2.362 11.895l28.779 18.55-12.246 29.564-33.472-7.234c-2.107 3.455-4.363 6.81-6.746 10.065l19.503 28.171-22.628 22.627-28.171-19.503c-3.256 2.383-6.61 4.638-10.065 6.747l7.234 33.472-29.564 12.247-18.55-28.779c-3.906 0.946-7.872 1.741-11.895 2.362l-6.126 33.691h-32l-6.126-33.691c-4.023-0.621-7.988-1.416-11.895-2.362l-18.549 28.779-29.564-12.246 7.234-33.472c-3.455-2.108-6.81-4.364-10.065-6.747l-28.171 19.503-22.627-22.627 19.503-28.171c-2.383-3.255-4.639-6.61-6.747-10.065l-33.472 7.234-12.246-29.564 28.779-18.55c-0.946-3.906-1.741-7.871-2.362-11.895l-33.692-6.126v-32l33.691-6.125c0.621-4.023 1.416-7.989 2.362-11.895l-28.779-18.55 12.246-29.564 33.472 7.234c2.108-3.455 4.364-6.809 6.747-10.065l-19.503-28.171 22.627-22.628 28.171 19.503c3.255-2.383 6.61-4.638 10.065-6.746l-7.234-33.472 29.564-12.246 18.551 28.779c3.905-0.946 7.871-1.741 11.894-2.362l6.126-33.692h32l6.126 33.691c4.022 0.621 7.988 1.416 11.895 2.362l18.55-28.779 29.564 12.246-7.234 33.472c3.455 2.108 6.81 4.363 10.065 6.746l28.171-19.503 22.628 22.628-19.503 28.171c2.383 3.256 4.638 6.61 6.746 10.065l33.472-7.234 12.246 29.565-28.779 18.55c0.946 3.906 1.741 7.871 2.362 11.895l33.691 6.125zM336 234.4c-38.439 0-69.6 31.161-69.6 69.6s31.16 69.6 69.6 69.6 69.6-31.161 69.6-69.6c0-38.439-31.16-69.6-69.6-69.6z" />
<glyph unicode="&#xea91;" glyph-name="facebook2" d="M464 480h-416c-26.4 0-48-21.6-48-48v-416c0-26.4 21.6-48 48-48h208v224h-64v64h64v32c0 52.9 43.1 96 96 96h64v-64h-64c-17.6 0-32-14.4-32-32v-32h96l-16-64h-80v-224h144c26.4 0 48 21.6 48 48v416c0 26.4-21.6 48-48 48z" />
<glyph unicode="&#xea92;" glyph-name="instagram" d="M256 433.9c68.4 0 76.5-0.3 103.4-1.5 25-1.1 38.5-5.3 47.5-8.8 11.9-4.6 20.5-10.2 29.4-19.1 9-9 14.5-17.5 19.2-29.4 3.5-9 7.7-22.6 8.8-47.5 1.2-27 1.5-35.1 1.5-103.4s-0.3-76.5-1.5-103.4c-1.1-25-5.3-38.5-8.8-47.5-4.6-11.9-10.2-20.5-19.1-29.4-9-9-17.5-14.5-29.4-19.2-9-3.5-22.6-7.7-47.5-8.8-27-1.2-35.1-1.5-103.4-1.5s-76.5 0.3-103.4 1.5c-25 1.1-38.5 5.3-47.5 8.8-11.9 4.6-20.5 10.2-29.4 19.1-9 9-14.5 17.5-19.2 29.4-3.5 9-7.7 22.6-8.8 47.5-1.2 27-1.5 35.1-1.5 103.4s0.3 76.5 1.5 103.4c1.1 25 5.3 38.5 8.8 47.5 4.6 11.9 10.2 20.5 19.1 29.4 9 9 17.5 14.5 29.4 19.2 9 3.5 22.6 7.7 47.5 8.8 26.9 1.2 35 1.5 103.4 1.5zM256 480c-69.5 0-78.2-0.3-105.5-1.5-27.2-1.2-45.9-5.6-62.1-11.9-16.9-6.6-31.2-15.3-45.4-29.6-14.3-14.2-23-28.5-29.6-45.3-6.3-16.3-10.7-34.9-11.9-62.1-1.2-27.4-1.5-36.1-1.5-105.6s0.3-78.2 1.5-105.5c1.2-27.2 5.6-45.9 11.9-62.1 6.6-16.9 15.3-31.2 29.6-45.4 14.2-14.2 28.5-23 45.3-29.5 16.3-6.3 34.9-10.7 62.1-11.9 27.3-1.2 36-1.5 105.5-1.5s78.2 0.3 105.5 1.5c27.2 1.2 45.9 5.6 62.1 11.9 16.8 6.5 31.1 15.3 45.3 29.5s23 28.5 29.5 45.3c6.3 16.3 10.7 34.9 11.9 62.1 1.2 27.3 1.5 36 1.5 105.5s-0.3 78.2-1.5 105.5c-1.2 27.2-5.6 45.9-11.9 62.1-6.3 17-15 31.3-29.3 45.5-14.2 14.2-28.5 23-45.3 29.5-16.3 6.3-34.9 10.7-62.1 11.9-27.4 1.3-36.1 1.6-105.6 1.6v0zM256 355.5c-72.6 0-131.5-58.9-131.5-131.5s58.9-131.5 131.5-131.5 131.5 58.9 131.5 131.5c0 72.6-58.9 131.5-131.5 131.5zM256 138.7c-47.1 0-85.3 38.2-85.3 85.3s38.2 85.3 85.3 85.3c47.1 0 85.3-38.2 85.3-85.3s-38.2-85.3-85.3-85.3zM423.4 360.7c0-16.955-13.745-30.7-30.7-30.7s-30.7 13.745-30.7 30.7c0 16.955 13.745 30.7 30.7 30.7s30.7-13.745 30.7-30.7z" />
<glyph unicode="&#xea96;" glyph-name="twitter" d="M512 366.8c-18.8-8.4-39.1-14-60.3-16.5 21.7 13 38.3 33.6 46.2 58.1-20.3-12-42.8-20.8-66.7-25.5-19.2 20.4-46.5 33.1-76.7 33.1-58 0-105-47-105-105 0-8.2 0.9-16.2 2.7-23.9-87.3 4.4-164.7 46.2-216.5 109.8-9-15.5-14.2-33.6-14.2-52.8 0-36.4 18.5-68.6 46.7-87.4-17.2 0.5-33.4 5.3-47.6 13.1 0-0.4 0-0.9 0-1.3 0-50.9 36.2-93.4 84.3-103-8.8-2.4-18.1-3.7-27.7-3.7-6.8 0-13.3 0.7-19.8 1.9 13.4-41.7 52.2-72.1 98.1-73-36-28.2-81.2-45-130.5-45-8.5 0-16.8 0.5-25.1 1.5 46.6-29.9 101.8-47.2 161.1-47.2 193.2 0 298.9 160.1 298.9 298.9 0 4.6-0.1 9.1-0.3 13.6 20.5 14.7 38.3 33.2 52.4 54.3z" />
</font></defs></svg>